%YAML 1.1
%TAG !u! tag:unity3d.com,2011:
--- !u!21 &2100000
Material:
  serializedVersion: 6
  m_ObjectHideFlags: 0
  m_PrefabParentObject: {fileID: 0}
  m_PrefabInternal: {fileID: 0}
  m_Name: StreetTable_mat
  m_Shader: {fileID: 4, guid: 0000000000000000f000000000000000, type: 0}
  m_ShaderKeywords: 
  m_LightmapFlags: 5
  m_CustomRenderQueue: -1
  stringTagMap: {}
  m_SavedProperties:
    serializedVersion: 2
    m_TexEnvs:
      data:
        first:
          name: _MainTex
        second:
          m_Texture: {fileID: 2800000, guid: f08dc6c908fba884b9e5002faf4dbe18, type: 3}
          m_Scale: {x: 1, y: 1}
          m_Offset: {x: 0, y: 0}
      data:
        first:
          name: _BumpMap
        second:
          m_Texture: {fileID: 2800000, guid: c460639f190b82e4986eee9bafa1d6e8, type: 3}
          m_Scale: {x: 1, y: 1}
          m_Offset: {x: 0, y: 0}
      data:
        first:
          name: _NormalMap
        second:
          m_Texture: {fileID: 2800000, guid: 9d842553c6dbe4e48b715df0c4e1b47e, type: 3}
          m_Scale: {x: 1, y: 1}
          m_Offset: {x: 0, y: 0}
      data:
        first:
          name: _Diffuse
        second:
          m_Texture: {fileID: 2800000, guid: 165ad4993903a3546962dd1c93936ed3, type: 3}
          m_Scale: {x: 1, y: 1}
          m_Offset: {x: 0, y: 0}
      data:
        first:
          name: _Cubemap
        second:
          m_Texture: {fileID: 8900000, guid: 2b9f65f9313cb424c9fe4ae3882fc5e1, type: 2}
          m_Scale: {x: 1, y: 1}
          m_Offset: {x: 0, y: 0}
      data:
        first:
          name: _Shining
        second:
          m_Texture: {fileID: 2800000, guid: 15aaf1c9426a90a45a790ba0a4537ddf, type: 3}
          m_Scale: {x: 1, y: 1}
          m_Offset: {x: 0, y: 0}
      data:
        first:
          name: _IllumText
        second:
          m_Texture: {fileID: 0}
          m_Scale: {x: 1, y: 1}
          m_Offset: {x: 0, y: 0}
      data:
        first:
          name: _cubemap
        second:
          m_Texture: {fileID: 8900000, guid: 2b9f65f9313cb424c9fe4ae3882fc5e1, type: 2}
          m_Scale: {x: 1, y: 1}
          m_Offset: {x: 0, y: 0}
      data:
        first:
          name: _Normal
        second:
          m_Texture: {fileID: 2800000, guid: 9d842553c6dbe4e48b715df0c4e1b47e, type: 3}
          m_Scale: {x: 1, y: 1}
          m_Offset: {x: 0, y: 0}
      data:
        first:
          name: _shining
        second:
          m_Texture: {fileID: 2800000, guid: 15aaf1c9426a90a45a790ba0a4537ddf, type: 3}
          m_Scale: {x: 1, y: 1}
          m_Offset: {x: 0, y: 0}
      data:
        first:
          name: _illum
        second:
          m_Texture: {fileID: 0}
          m_Scale: {x: 1, y: 1}
          m_Offset: {x: 0, y: 0}
    m_Floats:
      data:
        first:
          name: _Shininess
        second: .675740063
      data:
        first:
          name: _range
        second: 0
      data:
        first:
          name: _GlossHigh
        second: .716959596
      data:
        first:
          name: _GlossLow
        second: .166634306
      data:
        first:
          name: _HighSpecMultiplayer
        second: 1.91453004
      data:
        first:
          name: _ADD_gloss
        second: .915343881
      data:
        first:
          name: _Spec_Pic_range
        second: 1
      data:
        first:
          name: _cubemap_modifier
        second: .100000001
    m_Colors:
      data:
        first:
          name: _Color
        second: {r: 1, g: 1, b: 1, a: 1}
      data:
        first:
          name: _SpecColor
        second: {r: .5, g: .5, b: .5, a: 1}
      data:
        first:
          name: _color
        second: {r: .365671635, g: .34384048, b: .34384048, a: 1}
      data:
        first:
          name: _DiffColor
        second: {r: 1, g: 1, b: 1, a: 1}
      data:
        first:
          name: _CubeColor
        second: {r: .5, g: .5, b: .5, a: 1}
      data:
        first:
          name: _HighSpecColor
        second: {r: 1, g: 1, b: 1, a: 1}
      data:
        first:
          name: _LowSpecColor
        second: {r: .0735294223, g: .0735294223, b: .0735294223, a: 1}
      data:
        first:
          name: _IllumColor
        second: {r: 0, g: 0, b: 0, a: 1}
      data:
        first:
          name: _diff_color
        second: {r: 1, g: .977612019, b: .977612019, a: 1}
      data:
        first:
          name: _color_illum
        second: {r: 1, g: 1, b: 1, a: 1}
      data:
        first:
          name: _color_cubemap
        second: {r: .388059676, g: .388059676, b: .388059676, a: 1}
      data:
        first:
          name: _ADD_specular
        second: {r: 0, g: 0, b: 0, a: 1}
