%YAML 1.1
%TAG !u! tag:unity3d.com,2011:
--- !u!21 &2100000
Material:
  serializedVersion: 6
  m_ObjectHideFlags: 0
  m_PrefabParentObject: {fileID: 0}
  m_PrefabInternal: {fileID: 0}
  m_Name: Road-Cleaner_Lines
  m_Shader: {fileID: 4800000, guid: 1ff8a0777209e774a843b125c815607b, type: 3}
  m_ShaderKeywords: 
  m_LightmapFlags: 5
  m_CustomRenderQueue: -1
  stringTagMap: {}
  m_SavedProperties:
    serializedVersion: 2
    m_TexEnvs:
      data:
        first:
          name: _MainTex
        second:
          m_Texture: {fileID: 2800000, guid: 672c0dc19a42a1842ac1bbb39b757fc0, type: 3}
          m_Scale: {x: 1, y: 1}
          m_Offset: {x: 0, y: 0}
      data:
        first:
          name: _BumpMap
        second:
          m_Texture: {fileID: 2800000, guid: aa1eb94c3e5da1d4497a7fec645ec162, type: 3}
          m_Scale: {x: 1, y: 1}
          m_Offset: {x: 0, y: 0}
      data:
        first:
          name: _BlendText
        second:
          m_Texture: {fileID: 2800000, guid: a49da78487cdc3145b053e8a7c51cbe3, type: 3}
          m_Scale: {x: 1, y: 1}
          m_Offset: {x: 1, y: .5}
    m_Floats:
      data:
        first:
          name: _Shininess
        second: .078125
      data:
        first:
          name: _somerange
        second: -5
      data:
        first:
          name: _exponent
        second: 10
      data:
        first:
          name: _range2
        second: 1
      data:
        first:
          name: _range1
        second: .485074639
      data:
        first:
          name: _g
        second: .350746274
      data:
        first:
          name: _subtract
        second: .358208865
      data:
        first:
          name: _MaskBias
        second: -1
      data:
        first:
          name: _Subtraction
        second: .377439708
    m_Colors:
      data:
        first:
          name: _Color
        second: {r: .588, g: .588, b: .588, a: 1}
      data:
        first:
          name: _SpecColor
        second: {r: .5, g: .5, b: .5, a: 1}
