xof 0303txt 0032

// DirectX 9.0 file
// Creator: Ultimate Unwrap3D Pro v3.18
// Time: Fri Sep 11 21:27:08 2009

// Start of Templates

template VertexDuplicationIndices {
 <b8d65549-d7c9-4995-89cf-53a9a8b031e3>
 DWORD nIndices;
 DWORD nOriginalVertices;
 array DWORD indices[nIndices];
}

template FVFData {
 <b6e70a0e-8ef9-4e83-94ad-ecc8b0c04897>
 DWORD dwFVF;
 DWORD nDWords;
 array DWORD data[nDWords];
}

template Header {
 <3D82AB43-62DA-11cf-AB39-0020AF71E433>
 WORD major;
 WORD minor;
 DWORD flags;
}

template Vector {
 <3D82AB5E-62DA-11cf-AB39-0020AF71E433>
 FLOAT x;
 FLOAT y;
 FLOAT z;
}

template Coords2d {
 <F6F23F44-7686-11cf-8F52-0040333594A3>
 FLOAT u;
 FLOAT v;
}

template Matrix4x4 {
 <F6F23F45-7686-11cf-8F52-0040333594A3>
 array FLOAT matrix[16];
}

template ColorRGBA {
 <35FF44E0-6C7C-11cf-8F52-0040333594A3>
 FLOAT red;
 FLOAT green;
 FLOAT blue;
 FLOAT alpha;
}

template ColorRGB {
 <D3E16E81-7835-11cf-8F52-0040333594A3>
 FLOAT red;
 FLOAT green;
 FLOAT blue;
}

template IndexedColor {
 <1630B820-7842-11cf-8F52-0040333594A3>
 DWORD index;
 ColorRGBA indexColor;
}

template Material {
 <3D82AB4D-62DA-11cf-AB39-0020AF71E433>
 ColorRGBA faceColor;
 FLOAT power;
 ColorRGB specularColor;
 ColorRGB emissiveColor;
 [...]
}

template TextureFilename {
 <A42790E1-7810-11cf-8F52-0040333594A3>
 STRING filename;
}

template MeshFace {
 <3D82AB5F-62DA-11cf-AB39-0020AF71E433>
 DWORD nFaceVertexIndices;
 array DWORD faceVertexIndices[nFaceVertexIndices];
}

template MeshTextureCoords {
 <F6F23F40-7686-11cf-8F52-0040333594A3>
 DWORD nTextureCoords;
 array Coords2d textureCoords[nTextureCoords];
}

template MeshMaterialList {
 <F6F23F42-7686-11cf-8F52-0040333594A3>
 DWORD nMaterials;
 DWORD nFaceIndexes;
 array DWORD faceIndexes[nFaceIndexes];
 [Material]
}

template MeshNormals {
 <F6F23F43-7686-11cf-8F52-0040333594A3>
 DWORD nNormals;
 array Vector normals[nNormals];
 DWORD nFaceNormals;
 array MeshFace faceNormals[nFaceNormals];
}

template MeshVertexColors {
 <1630B821-7842-11cf-8F52-0040333594A3>
 DWORD nVertexColors;
 array IndexedColor vertexColors[nVertexColors];
}

template Mesh {
 <3D82AB44-62DA-11cf-AB39-0020AF71E433>
 DWORD nVertices;
 array Vector vertices[nVertices];
 DWORD nFaces;
 array MeshFace faces[nFaces];
 [...]
}

template FrameTransformMatrix {
 <F6F23F41-7686-11cf-8F52-0040333594A3>
 Matrix4x4 frameMatrix;
}

template Frame {
 <3D82AB46-62DA-11cf-AB39-0020AF71E433>
 [...]
}

template FloatKeys {
 <10DD46A9-775B-11cf-8F52-0040333594A3>
 DWORD nValues;
 array FLOAT values[nValues];
}

template TimedFloatKeys {
 <F406B180-7B3B-11cf-8F52-0040333594A3>
 DWORD time;
 FloatKeys tfkeys;
}

template AnimationKey {
 <10DD46A8-775B-11cf-8F52-0040333594A3>
 DWORD keyType;
 DWORD nKeys;
 array TimedFloatKeys keys[nKeys];
}

template AnimationOptions {
 <E2BF56C0-840F-11cf-8F52-0040333594A3>
 DWORD openclosed;
 DWORD positionquality;
}

template Animation {
 <3D82AB4F-62DA-11cf-AB39-0020AF71E433>
 [...]
}

template AnimationSet {
 <3D82AB50-62DA-11cf-AB39-0020AF71E433>
 [Animation]
}

template XSkinMeshHeader {
 <3CF169CE-FF7C-44ab-93C0-F78F62D172E2>
 WORD nMaxSkinWeightsPerVertex;
 WORD nMaxSkinWeightsPerFace;
 WORD nBones;
}

template SkinWeights {
 <6F0D123B-BAD2-4167-A0D0-80224F25FABB>
 STRING transformNodeName;
 DWORD nWeights;
 array DWORD vertexIndices[nWeights];
 array FLOAT weights[nWeights];
 Matrix4x4 matrixOffset;
}

template AnimTicksPerSecond {
 <9E415A43-7BA6-4a73-8743-B73D47E88476>
 DWORD AnimTicksPerSecond;
}

AnimTicksPerSecond {
 4800;
}

// Start of Frames

Frame Body {
   FrameTransformMatrix {
    1.000000, 0.000000, 0.000000, 0.000000,
    0.000000, 1.000000, 0.000000, 0.000000,
    0.000000, 0.000000, 1.000000, 0.000000,
    0.000000, 0.000000, 0.000000, 1.000000;;
   }

   Mesh staticMesh {
    24;
    287.283997; 115.963997; 32.769501;,
    -17.905199; 115.963997; 32.769501;,
    287.283997; 115.963997; 151.854996;,
    -17.905199; 115.963997; 151.854996;,
    287.283997; -3.121220; 32.769501;,
    287.283997; 115.963997; 32.769501;,
    287.283997; -3.121220; 151.854996;,
    287.283997; 115.963997; 151.854996;,
    -17.905199; -3.121220; 32.769501;,
    287.283997; -3.121220; 32.769501;,
    -17.905199; -3.121220; 151.854996;,
    287.283997; -3.121220; 151.854996;,
    -17.905199; 115.963997; 32.769501;,
    -17.905199; -3.121220; 32.769501;,
    -17.905199; 115.963997; 151.854996;,
    -17.905199; -3.121220; 151.854996;,
    287.283997; -3.121220; 32.769501;,
    -17.905199; -3.121220; 32.769501;,
    287.283997; 115.963997; 32.769501;,
    -17.905199; 115.963997; 32.769501;,
    -17.905199; -3.121220; 151.854996;,
    287.283997; -3.121220; 151.854996;,
    -17.905199; 115.963997; 151.854996;,
    287.283997; 115.963997; 151.854996;;
    12;
    3;0, 1, 2;,
    3;1, 3, 2;,
    3;4, 5, 6;,
    3;5, 7, 6;,
    3;8, 9, 10;,
    3;9, 11, 10;,
    3;12, 13, 14;,
    3;13, 15, 14;,
    3;16, 17, 18;,
    3;17, 19, 18;,
    3;20, 21, 22;,
    3;21, 23, 22;;

   MeshNormals {
    24;
    0.577350; 0.577350; -0.577350;,
    -0.577350; 0.577350; -0.577350;,
    0.577350; 0.577350; 0.577350;,
    -0.577350; 0.577350; 0.577350;,
    0.577350; -0.577350; -0.577350;,
    0.577350; 0.577350; -0.577350;,
    0.577350; -0.577350; 0.577350;,
    0.577350; 0.577350; 0.577350;,
    -0.577350; -0.577350; -0.577350;,
    0.577350; -0.577350; -0.577350;,
    -0.577350; -0.577350; 0.577350;,
    0.577350; -0.577350; 0.577350;,
    -0.577350; 0.577350; -0.577350;,
    -0.577350; -0.577350; -0.577350;,
    -0.577350; 0.577350; 0.577350;,
    -0.577350; -0.577350; 0.577350;,
    0.577350; -0.577350; -0.577350;,
    -0.577350; -0.577350; -0.577350;,
    0.577350; 0.577350; -0.577350;,
    -0.577350; 0.577350; -0.577350;,
    -0.577350; -0.577350; 0.577350;,
    0.577350; -0.577350; 0.577350;,
    -0.577350; 0.577350; 0.577350;,
    0.577350; 0.577350; 0.577350;;
    12;
    3;0, 1, 2;,
    3;1, 3, 2;,
    3;4, 5, 6;,
    3;5, 7, 6;,
    3;8, 9, 10;,
    3;9, 11, 10;,
    3;12, 13, 14;,
    3;13, 15, 14;,
    3;16, 17, 18;,
    3;17, 19, 18;,
    3;20, 21, 22;,
    3;21, 23, 22;;
   }

   MeshTextureCoords {
    24;
    0.453132; 0.563013;,
    0.011349; 0.563013;,
    0.453132; 0.910332;,
    0.011349; 0.910332;,
    0.937257; 0.965041;,
    0.937257; 0.477442;,
    0.499689; 0.965041;,
    0.499689; 0.477442;,
    0.011349; 0.563013;,
    0.453132; 0.563013;,
    0.011349; 0.910332;,
    0.453132; 0.910332;,
    0.937257; 0.477442;,
    0.937257; 0.965041;,
    0.499689; 0.477442;,
    0.499689; 0.965041;,
    0.946190; 0.408725;,
    0.044090; 0.408725;,
    0.946190; 0.034015;,
    0.044090; 0.034015;,
    0.044090; 0.408725;,
    0.946190; 0.408725;,
    0.044090; 0.034015;,
    0.946190; 0.034015;;
   }

   MeshVertexColors {
    24;
    0; 1.000000; 1.000000; 1.000000; 1.000000;,
    1; 1.000000; 1.000000; 1.000000; 1.000000;,
    2; 1.000000; 1.000000; 1.000000; 1.000000;,
    3; 1.000000; 1.000000; 1.000000; 1.000000;,
    4; 1.000000; 1.000000; 1.000000; 1.000000;,
    5; 1.000000; 1.000000; 1.000000; 1.000000;,
    6; 1.000000; 1.000000; 1.000000; 1.000000;,
    7; 1.000000; 1.000000; 1.000000; 1.000000;,
    8; 1.000000; 1.000000; 1.000000; 1.000000;,
    9; 1.000000; 1.000000; 1.000000; 1.000000;,
    10; 1.000000; 1.000000; 1.000000; 1.000000;,
    11; 1.000000; 1.000000; 1.000000; 1.000000;,
    12; 1.000000; 1.000000; 1.000000; 1.000000;,
    13; 1.000000; 1.000000; 1.000000; 1.000000;,
    14; 1.000000; 1.000000; 1.000000; 1.000000;,
    15; 1.000000; 1.000000; 1.000000; 1.000000;,
    16; 1.000000; 1.000000; 1.000000; 1.000000;,
    17; 1.000000; 1.000000; 1.000000; 1.000000;,
    18; 1.000000; 1.000000; 1.000000; 1.000000;,
    19; 1.000000; 1.000000; 1.000000; 1.000000;,
    20; 1.000000; 1.000000; 1.000000; 1.000000;,
    21; 1.000000; 1.000000; 1.000000; 1.000000;,
    22; 1.000000; 1.000000; 1.000000; 1.000000;,
    23; 1.000000; 1.000000; 1.000000; 1.000000;;
   }

   MeshMaterialList {
    1;
    12;
    0,
    0,
    0,
    0,
    0,
    0,
    0,
    0,
    0,
    0,
    0,
    0;

    Material container1 {
     0.992157; 0.992157; 0.992157; 1.000000;;
     128.000000;
     0.992157; 0.992157; 0.992157;;
     0.000000; 0.000000; 0.000000;;

     TextureFilename {
      "container1.dds";
     }
    }

   }
  }
}
