%YAML 1.1
%TAG !u! tag:unity3d.com,2011:
--- !u!21 &2100000
Material:
  serializedVersion: 6
  m_ObjectHideFlags: 0
  m_PrefabParentObject: {fileID: 0}
  m_PrefabInternal: {fileID: 0}
  m_Name: GSDRumbleStrip
  m_Shader: {fileID: 31, guid: 0000000000000000f000000000000000, type: 0}
  m_ShaderKeywords: 
  m_LightmapFlags: 5
  m_CustomRenderQueue: -1
  stringTagMap: {}
  m_SavedProperties:
    serializedVersion: 2
    m_TexEnvs:
      data:
        first:
          name: _MainTex
        second:
          m_Texture: {fileID: 2800000, guid: a176fe4535f7f5a4a8cdb74a936c4284, type: 3}
          m_Scale: {x: 1, y: 1}
          m_Offset: {x: 0, y: 0}
      data:
        first:
          name: _BumpMap
        second:
          m_Texture: {fileID: 2800000, guid: 8066f243425f804499e2ee255e417846, type: 3}
          m_Scale: {x: 1, y: 1}
          m_Offset: {x: 0, y: 0}
      data:
        first:
          name: _ParallaxMap
        second:
          m_Texture: {fileID: 2800000, guid: b180ec0e0633b344593c0522b0a7e946, type: 3}
          m_Scale: {x: 4, y: 4}
          m_Offset: {x: 0, y: 0}
      data:
        first:
          name: _Detail
        second:
          m_Texture: {fileID: 2800000, guid: 74abfab6bf577c64d863cca0004d26eb, type: 3}
          m_Scale: {x: 1, y: 1}
          m_Offset: {x: 0, y: 0}
      data:
        first:
          name: _Cube
        second:
          m_Texture: {fileID: 0}
          m_Scale: {x: 1, y: 1}
          m_Offset: {x: 0, y: 0}
      data:
        first:
          name: _ToonShade
        second:
          m_Texture: {fileID: 0}
          m_Scale: {x: 1, y: 1}
          m_Offset: {x: 0, y: 0}
      data:
        first:
          name: _LightMap
        second:
          m_Texture: {fileID: 0}
          m_Scale: {x: 1, y: 1}
          m_Offset: {x: 0, y: 0}
      data:
        first:
          name: _SparkleTex
        second:
          m_Texture: {fileID: 0}
          m_Scale: {x: 1, y: 1}
          m_Offset: {x: 0, y: 0}
      data:
        first:
          name: _GlossMap
        second:
          m_Texture: {fileID: 0}
          m_Scale: {x: 1, y: 1}
          m_Offset: {x: 0, y: 0}
      data:
        first:
          name: _ReflMask
        second:
          m_Texture: {fileID: 0}
          m_Scale: {x: 1, y: 1}
          m_Offset: {x: 0, y: 0}
      data:
        first:
          name: _Decal
        second:
          m_Texture: {fileID: 0}
          m_Scale: {x: 1, y: 1}
          m_Offset: {x: 0, y: 0}
      data:
        first:
          name: _FrontTex
        second:
          m_Texture: {fileID: 0}
          m_Scale: {x: 1, y: 1}
          m_Offset: {x: 0, y: 0}
      data:
        first:
          name: _BackTex
        second:
          m_Texture: {fileID: 0}
          m_Scale: {x: 1, y: 1}
          m_Offset: {x: 0, y: 0}
      data:
        first:
          name: _LeftTex
        second:
          m_Texture: {fileID: 0}
          m_Scale: {x: 1, y: 1}
          m_Offset: {x: 0, y: 0}
      data:
        first:
          name: _RightTex
        second:
          m_Texture: {fileID: 0}
          m_Scale: {x: 1, y: 1}
          m_Offset: {x: 0, y: 0}
      data:
        first:
          name: _UpTex
        second:
          m_Texture: {fileID: 0}
          m_Scale: {x: 1, y: 1}
          m_Offset: {x: 0, y: 0}
      data:
        first:
          name: _DownTex
        second:
          m_Texture: {fileID: 0}
          m_Scale: {x: 1, y: 1}
          m_Offset: {x: 0, y: 0}
    m_Floats:
      data:
        first:
          name: _Reflection
        second: 0
      data:
        first:
          name: _Shininess
        second: .00999999978
      data:
        first:
          name: _SquashAmount
        second: 1
      data:
        first:
          name: _Parallax
        second: .0161940306
      data:
        first:
          name: _Outline
        second: .00499999989
      data:
        first:
          name: _ShadowIntensity
        second: .600000024
      data:
        first:
          name: _Gloss
        second: 0
      data:
        first:
          name: _FrezPow
        second: 0
      data:
        first:
          name: _FrezFalloff
        second: 4
      data:
        first:
          name: _EdgeLength
        second: 10
      data:
        first:
          name: _DecalColoring
        second: .5
      data:
        first:
          name: _Sparkle
        second: .00999999978
      data:
        first:
          name: _LineWidth
        second: .100000001
      data:
        first:
          name: _LightmapDensity
        second: .5
    m_Colors:
      data:
        first:
          name: _Scale
        second: {r: 1, g: 1, b: 1, a: 1}
      data:
        first:
          name: _Color
        second: {r: 1, g: 1, b: 1, a: 1}
      data:
        first:
          name: _SpecColor
        second: {r: 0, g: 0, b: 0, a: 1}
      data:
        first:
          name: _Emission
        second: {r: 0, g: 0, b: 0, a: 0}
      data:
        first:
          name: _SpecularColor
        second: {r: .5, g: .5, b: .5, a: 1}
      data:
        first:
          name: _ReflectColor
        second: {r: 1, g: 1, b: 1, a: .5}
      data:
        first:
          name: _OutlineColor
        second: {r: 0, g: 0, b: 0, a: 1}
      data:
        first:
          name: _Tint
        second: {r: .5, g: .5, b: .5, a: .5}
      data:
        first:
          name: _HighlightColor
        second: {r: 1, g: 1, b: 1, a: 1}
      data:
        first:
          name: _LineColor
        second: {r: 1, g: 1, b: 1, a: 1}
      data:
        first:
          name: _GridColor
        second: {r: 0, g: 0, b: 0, a: 0}
